{
    "HAS_UNIQUE_STYLE": false,
    "buttonColor": "#e40c39",
    "buttonGroupColor": "#e40c39",
    "cardBackgroundColor": "#f5f5f5",
    "displayColumn": "item_id",
    "editColumns": {
        "x": {
            "autoHeight": true,
            "dataType": "double",
            "display": true,
            "dropdownOptions": [
                "technician",
                "engineer",
                "manager"
            ],
            "inputType": "number",
            "key": "afd6c6e6-3917-4099-9e3d-68d7e878568d",
            "label": "x-value to test",
            "layout": {
                "lg": {
                    "h": 5,
                    "i": "x",
                    "minH": 3,
                    "moved": false,
                    "static": false,
                    "w": 30,
                    "x": 0,
                    "y": 0
                },
                "md": {
                    "h": 5,
                    "i": "x",
                    "minH": 3,
                    "moved": false,
                    "static": false,
                    "w": 24,
                    "x": 0,
                    "y": 0
                },
                "sm": {
                    "h": 5,
                    "i": "x",
                    "minH": 3,
                    "moved": false,
                    "static": false,
                    "w": 18,
                    "x": 0,
                    "y": 0
                },
                "xl": {
                    "h": 5,
                    "i": "x",
                    "minH": 3,
                    "w": 36,
                    "x": 0,
                    "y": 9
                },
                "xs": {
                    "h": 5,
                    "i": "x",
                    "minH": 3,
                    "moved": false,
                    "static": false,
                    "w": 10,
                    "x": 0,
                    "y": 0
                },
                "xxs": {
                    "h": 5,
                    "i": "x",
                    "minH": 3,
                    "moved": false,
                    "static": false,
                    "w": 6,
                    "x": 0,
                    "y": 0
                }
            },
            "name": "x",
            "orderIdx": 3,
            "required": true
        }
    },
    "eventTarget": {
        "dataType": "DYNAMIC_DATA_TYPE",
        "force_data": [
            "CALCULATED_DATA_TYPE",
            "DYNAMIC_DATA_TYPE"
        ],
        "id": "88269dd7-e2c6-45de-9e74-15678c981c62",
        "outgoing_parser": {
            "isDebugOn": false,
            "value": "./parsers/eventTarget/outgoing_parser/index.js"
        }
    },
    "fontColor": "#000000",
    "hideSubmit": false,
    "isReadOnly": false,
    "listSource": {
        "dataType": "CALCULATED_DATA_TYPE",
        "force_data": [
            "CALCULATED_DATA_TYPE",
            "DYNAMIC_DATA_TYPE"
        ],
        "incoming_parser": {
            "isDebugOn": false
        },
        "value": "./parsers/listSource/incoming_parser/index.js"
    },
    "noDataText": "No data",
    "sliderColor": "#e40c39",
    "submitText": "Predict y",
    "successNotificationText": "Form Submitted!",
    "titleColor": "#000000",
    "toggleColor": "#e40c39",
    "typeaheadColor": "#e40c39"
}