{
    "id": "aa570f0c-488b-4954-88da-14230cb940da",
    "name": "getProductTypesParamsAddrsTimestamps",
    "settings": {
        "CALL_ON_LOAD": true,
        "DATASOURCE_PARSER": "./parser.js",
        "SUPPRESS_DATASOURCE_ERRORS": false,
        "USE_PARSER": true,
        "code_name": "getProductTypesParamsAddrsTimestamps",
        "payload": "{}",
        "refresh_interval": 0
    },
    "type": "CB_CODE_SERVICE"
}