{
    "HAS_UNIQUE_STYLE": false,
    "fontColor": "#000000",
    "fontFamily": "Helvetica",
    "fontSize": 18,
    "textContent": {
        "dataType": "CALCULATED_DATA_TYPE",
        "value": "./parsers/textContent/incoming_parser/index.js"
    }
}