{
    "id": "d5f03da3-60a7-46dd-a0a2-abaa1ce97b8a",
    "name": "paramNames",
    "settings": {
        "CALL_ON_LOAD": true,
        "DATASOURCE_PARSER": "./parser.js",
        "SUPPRESS_DATASOURCE_ERRORS": false,
        "USE_PARSER": true,
        "collection_name": "paramNames",
        "refresh_interval": 0
    },
    "type": "CB_COLLECTION"
}