{
    "externalScripts": [],
    "id": "f8cabd95-f027-47ee-84c6-b3135df8a9e9",
    "name": "TEXT_WIDGET_COMPONENT_f8cabd95-f027-47ee-84c6-b3135df8a9e9",
    "tab": "PANE_GRID",
    "type": "TEXT_WIDGET_COMPONENT"
}